{
  "compilerOptions": {
    "baseUrl": ".",
    "jsx": "react",
    "paths": {
      "@root/*": ["src/*"],
      "@stateMachines/*":[ "src/stateMachines/*"],
      "@pages/*": ["src/components/pages/*"],
      "@templates/*": ["src/components/templates/*"],
      "@organisms/*": ["src/components/organisms/*"],
      "@molecules/*": ["src/components/molecules/*"],
      "@atoms/*": ["src/components/atoms/*"],
      "@utils/*":[ "src/utils/*"],
      "@assets/*":[ "src/assets/*"],
      "@images/*": ["src/assets/images/*"],
      "@styles/*": ["src/assets/styles/*"],
      "@languages/*": ["src/internationalization/languages/*"],
      "@internationalization/*":[ "src/internationalization/*"],
      "@routes/*":[ "src/routes/*"],
      "@hooks/*":[ "src/hooks/*"],
    }
  },
  "exclude": ["node_modules", "dist"]
}